{
    "preguntas":[
            {
            
              "id":1,
              "image": "https://s.ftcdn.net/v2013/pics/all/curated/RKyaEDwp8J7JKeZWQPuOVWvkUjGQfpCx_cover_580.jpg?r=1a0fc22192d0c808b8bb2b9bcfbf4a45b1793687",
              "pregunta":"Esta es solo una demostracion de las preguntas",
              "respuesta_usuario":"1",
              "opciones": [
                  "primera opción",
                  "Segunda opcion",
                  "Tercera opcion",
                  "Cuarta opcion"
              ]

              
            
            },
            {
            
                "id":1,
                "image": "https://s.ftcdn.net/v2013/pics/all/curated/RKyaEDwp8J7JKeZWQPuOVWvkUjGQfpCx_cover_580.jpg?r=1a0fc22192d0c808b8bb2b9bcfbf4a45b1793687",
                "pregunta":"Esta es solo una demostracion de las preguntas",
                "respuesta_usuario":"assets/factions/banner_naturales.png",
                "opciones": [
                    "primera opción",
                    "Segunda opcion",
                    "Tercera opcion",
                    "Cuarta opcion"
                ]
  
                
              
            },
            {
            
                "id":1,
                "image": "https://s.ftcdn.net/v2013/pics/all/curated/RKyaEDwp8J7JKeZWQPuOVWvkUjGQfpCx_cover_580.jpg?r=1a0fc22192d0c808b8bb2b9bcfbf4a45b1793687",
                "pregunta":"Esta es solo una demostracion de las preguntas",
                "respuesta_usuario":"assets/factions/banner_naturales.png",
                "opciones": [
                    "primera opción",
                    "Segunda opcion",
                    "Tercera opcion",
                    "Cuarta opcion"
                ]
  
                
              
            },
            {
            
                "id":1,
                "image": "https://s.ftcdn.net/v2013/pics/all/curated/RKyaEDwp8J7JKeZWQPuOVWvkUjGQfpCx_cover_580.jpg?r=1a0fc22192d0c808b8bb2b9bcfbf4a45b1793687",
                "pregunta":"Esta es solo una demostracion de las preguntas",
                "respuesta_usuario":"assets/factions/banner_naturales.png",
                "opciones": [
                    "primera opción",
                    "Segunda opcion",
                    "Tercera opcion",
                    "Cuarta opcion"
                ]
  
                
              
            },
            {
            
                "id":1,
                "image": "https://s.ftcdn.net/v2013/pics/all/curated/RKyaEDwp8J7JKeZWQPuOVWvkUjGQfpCx_cover_580.jpg?r=1a0fc22192d0c808b8bb2b9bcfbf4a45b1793687",
                "pregunta":"Esta es solo una demostracion de las preguntas",
                "respuesta_usuario":"assets/factions/banner_naturales.png",
                "opciones": [
                    "primera opción",
                    "Segunda opcion",
                    "Tercera opcion",
                    "Cuarta opcion"
                ]
  
                
              
            }
        ]
}